<define-tag pagetitle>DLA-3075-1 schroot</define-tag>
<define-tag report_date>2022-8-18</define-tag>
<define-tag secrefs>CVE-2022-2787</define-tag>
<define-tag packages>schroot</define-tag>
<define-tag isvulnerable>yes</define-tag>
<define-tag fixed>yes</define-tag>
<define-tag fixed-section>no</define-tag>

#use wml::debian::security

