<define-tag pagetitle>DLA-2889-1 drupal7</define-tag>
<define-tag report_date>2022-1-19</define-tag>
<define-tag secrefs>CVE-2021-41182 CVE-2021-41183 CVE-2016-7103 CVE-2010-5312</define-tag>
<define-tag packages>drupal7</define-tag>
<define-tag isvulnerable>yes</define-tag>
<define-tag fixed>yes</define-tag>
<define-tag fixed-section>no</define-tag>

#use wml::debian::security

