<define-tag pagetitle>DLA-3125-1 libvncserver</define-tag>
<define-tag report_date>2022-9-29</define-tag>
<define-tag secrefs>CVE-2020-25708 CVE-2020-29260</define-tag>
<define-tag packages>libvncserver</define-tag>
<define-tag isvulnerable>yes</define-tag>
<define-tag fixed>yes</define-tag>
<define-tag fixed-section>no</define-tag>

#use wml::debian::security

