<define-tag pagetitle>DLA-3168-1 openvswitch</define-tag>
<define-tag report_date>2022-10-29</define-tag>
<define-tag secrefs>CVE-2022-32166</define-tag>
<define-tag packages>openvswitch</define-tag>
<define-tag isvulnerable>yes</define-tag>
<define-tag fixed>yes</define-tag>
<define-tag fixed-section>no</define-tag>

#use wml::debian::security

