<define-tag pagetitle>DLA-3217-1 g810-led</define-tag>
<define-tag report_date>2022-12-03</define-tag>
<define-tag secrefs>CVE-2022-46338 Bug#1024998</define-tag>
<define-tag packages>g810-led</define-tag>
<define-tag isvulnerable>yes</define-tag>
<define-tag fixed>yes</define-tag>
<define-tag fixed-section>no</define-tag>

#use wml::debian::security

