<define-tag pagetitle>DLA-2943-1 ruby-sidekiq</define-tag>
<define-tag report_date>2022-03-10</define-tag>
<define-tag secrefs>CVE-2021-30151 CVE-2022-23837 Bug#987354 Bug#1004193</define-tag>
<define-tag packages>ruby-sidekiq</define-tag>
<define-tag isvulnerable>yes</define-tag>
<define-tag fixed>yes</define-tag>
<define-tag fixed-section>no</define-tag>

#use wml::debian::security

