<define-tag pagetitle>DLA-3167-1 ncurses</define-tag>
<define-tag report_date>2022-10-29</define-tag>
<define-tag secrefs>CVE-2022-29458</define-tag>
<define-tag packages>ncurses</define-tag>
<define-tag isvulnerable>yes</define-tag>
<define-tag fixed>yes</define-tag>
<define-tag fixed-section>no</define-tag>

#use wml::debian::security

