<define-tag pagetitle>DLA-3244-1 linux-5.10</define-tag>
<define-tag report_date>2022-12-22</define-tag>
<define-tag secrefs>CVE-2021-3759 CVE-2022-3169 CVE-2022-3435 CVE-2022-3521 CVE-2022-3524 CVE-2022-3564 CVE-2022-3565 CVE-2022-3594 CVE-2022-3628 CVE-2022-3640 CVE-2022-3643 CVE-2022-4139 CVE-2022-4378 CVE-2022-41849 CVE-2022-41850 CVE-2022-42328 CVE-2022-42329 CVE-2022-42895 CVE-2022-42896 CVE-2022-47518 CVE-2022-47519 CVE-2022-47520 CVE-2022-47521 Bug#1022806 Bug#1024697</define-tag>
<define-tag packages>linux-5.10</define-tag>
<define-tag isvulnerable>yes</define-tag>
<define-tag fixed>yes</define-tag>
<define-tag fixed-section>no</define-tag>

#use wml::debian::security

