<define-tag pagetitle>DLA-2989-1 ghostscript</define-tag>
<define-tag report_date>2022-5-01</define-tag>
<define-tag secrefs>CVE-2019-25059</define-tag>
<define-tag packages>ghostscript</define-tag>
<define-tag isvulnerable>yes</define-tag>
<define-tag fixed>yes</define-tag>
<define-tag fixed-section>no</define-tag>

#use wml::debian::security

