<define-tag pagetitle>DLA-3130-1 tinyxml</define-tag>
<define-tag report_date>2022-9-30</define-tag>
<define-tag secrefs>CVE-2021-42260</define-tag>
<define-tag packages>tinyxml</define-tag>
<define-tag isvulnerable>yes</define-tag>
<define-tag fixed>yes</define-tag>
<define-tag fixed-section>no</define-tag>

#use wml::debian::security

