<define-tag pagetitle>DSA-4953-1 lynx</define-tag>
<define-tag report_date>2021-8-10</define-tag>
<define-tag secrefs>CVE-2021-38165 Bug#991971</define-tag>
<define-tag packages>lynx</define-tag>
<define-tag isvulnerable>yes</define-tag>
<define-tag fixed>yes</define-tag>
<define-tag fixed-section>no</define-tag>

#use wml::debian::security



</dl>
