<define-tag pagetitle>DSA-4959-1 thunderbird</define-tag>
<define-tag report_date>2021-8-15</define-tag>
<define-tag secrefs>CVE-2021-29980 CVE-2021-29984 CVE-2021-29985 CVE-2021-29986 CVE-2021-29988 CVE-2021-29989</define-tag>
<define-tag packages>thunderbird</define-tag>
<define-tag isvulnerable>yes</define-tag>
<define-tag fixed>yes</define-tag>
<define-tag fixed-section>no</define-tag>

#use wml::debian::security



</dl>
