<define-tag pagetitle>DSA-4872-1 shibboleth-sp</define-tag>
<define-tag report_date>2021-3-18</define-tag>
<define-tag secrefs>not yet available Bug#985405</define-tag>
<define-tag packages>shibboleth-sp</define-tag>
<define-tag isvulnerable>yes</define-tag>
<define-tag fixed>yes</define-tag>
<define-tag fixed-section>no</define-tag>

#use wml::debian::security



</dl>
