<define-tag pagetitle>DSA-4966-1 gpac</define-tag>
<define-tag report_date>2021-8-31</define-tag>
<define-tag secrefs>CVE-2021-21834 CVE-2021-21836 CVE-2021-21837 CVE-2021-21838 CVE-2021-21839 CVE-2021-21840 CVE-2021-21841 CVE-2021-21842 CVE-2021-21843 CVE-2021-21844 CVE-2021-21845 CVE-2021-21846 CVE-2021-21847 CVE-2021-21848 CVE-2021-21849 CVE-2021-21850 CVE-2021-21853 CVE-2021-21854 CVE-2021-21855 CVE-2021-21857 CVE-2021-21858 CVE-2021-21859 CVE-2021-21860 CVE-2021-21861</define-tag>
<define-tag packages>gpac</define-tag>
<define-tag isvulnerable>yes</define-tag>
<define-tag fixed>yes</define-tag>
<define-tag fixed-section>no</define-tag>

#use wml::debian::security



</dl>
