<define-tag pagetitle>DSA-5018-1 python-babel</define-tag>
<define-tag report_date>2021-12-09</define-tag>
<define-tag secrefs>CVE-2021-42771 Bug#987824</define-tag>
<define-tag packages>python-babel</define-tag>
<define-tag isvulnerable>yes</define-tag>
<define-tag fixed>yes</define-tag>
<define-tag fixed-section>no</define-tag>

#use wml::debian::security



</dl>
