<define-tag pagetitle>DSA-4893-1 xorg-server</define-tag>
<define-tag report_date>2021-4-19</define-tag>
<define-tag secrefs>CVE-2021-3472</define-tag>
<define-tag packages>xorg-server</define-tag>
<define-tag isvulnerable>yes</define-tag>
<define-tag fixed>yes</define-tag>
<define-tag fixed-section>no</define-tag>

#use wml::debian::security



</dl>
