<define-tag pagetitle>DSA-4665-1 qemu</define-tag>
<define-tag report_date>2020-4-27</define-tag>
<define-tag secrefs>CVE-2019-12068 CVE-2019-15034 CVE-2019-20382 CVE-2020-1983</define-tag>
<define-tag packages>qemu</define-tag>
<define-tag isvulnerable>yes</define-tag>
<define-tag fixed>yes</define-tag>
<define-tag fixed-section>no</define-tag>

#use wml::debian::security



</dl>
