-=-=-=-=-=-=-=-=-=-=-=-=-=-=-=-=-=-=-=-=-=-=-=-=-=-=-=-=-=-=-=-=-=-=-=
Count     Debian UID 	   Name 
-=-=-=-=-=-=-=-=-=-=-=-=-=-=-=-=-=-=-=-=-=-=-=-=-=-=-=-=-=-=-=-=-=-=-=
    1           93sam	Steve McIntyre
    2             abe	Axel Beckert
    3        achernya	Alexander Chernyakhovsky
    4       adrianorg	Adriano Rafael Gomes
    5            adsb	Adam D. Barratt
    6             agi	Alberto Gonzalez Iniesta
    7             agx	Guido Guenther
    8              ah	Andreas Henriksson
    9          akumar	Kumar Appaiah
   10           alexm	Alex Muntada
   11           alexp	Alex Pennace
   12            alfs	Stefan Alfredsson
   13        alteholz	Thorsten Alteholz
   14        amacater	Andrew Martin Adrian Cater
   15           amaya	Amaya Rodrigo Sastre
   16        ametzler	Andreas Metzler
   17             ana	Ana Beatriz Guerrero López
   18         anarcat	Antoine Beaupré
   19            andi	Andreas B. Mundt
   20        andrewsh	Andrej Shadura
   21        angdraug	Dmitry Borodaenko
   22           angel	Angel Abad
   23          anibal	Anibal Monsalve Salazar
   24          ansgar	Ansgar
   25        anuradha	Anuradha Weeraman
-=-=-=-=-=-=-=-=-=-=-=-=-=-=-=-=-=-=-=-=-=-=-=-=-=-=-=-=-=-=-=-=-=-=-=
Count     Debian UID 	   Name 
-=-=-=-=-=-=-=-=-=-=-=-=-=-=-=-=-=-=-=-=-=-=-=-=-=-=-=-=-=-=-=-=-=-=-=
   26             apo	Markus Koschany
   27            ardo	Ardo van Rangelrooij
   28             ari	Ari Pollak
   29            aron	Aron Xu
   30          arturo	Arturo Borrero González
   31         aurel32	Aurelien Jarno
   32           aviau	Alexandre Viau
   33             awm	Andrew McMillan
   34       awoodland	Alan Woodland
   35              az	Alexander Zangerl
   36        azekulic	Alen Zekulic
   37      babelouest	Nicolas Mora
   38     balasankarc	Balasankar Chelamattathu
   39        ballombe	Bill Allombert
   40             bam	Brian May
   41             bap	Barak A. Pearlmutter
   42           bartm	Bart Martens
   43             bas	Bas Zoetekouw
   44           bayle	Christian Bayle
   45          bbaren	Benjamin Barenblat
   46         bblough	William Blough
   47           bdale	Bdale Garbee
   48          bengen	Hilko Bengen
   49            benh	Ben Hutchings
   50            beuc	Sylvain Beucler
-=-=-=-=-=-=-=-=-=-=-=-=-=-=-=-=-=-=-=-=-=-=-=-=-=-=-=-=-=-=-=-=-=-=-=
Count     Debian UID 	   Name 
-=-=-=-=-=-=-=-=-=-=-=-=-=-=-=-=-=-=-=-=-=-=-=-=-=-=-=-=-=-=-=-=-=-=-=
   51         bgoglin	Brice Goglin
   52           biebl	Michael Biebl
   53         bigeasy	Sebastian Andrzej Siewior
   54           blade	Eduard Bloch
   55           bluca	Luca Boccassi
   56           bootc	Chris Boot
   57         bremner	David Bremner
   58         broonie	Mark Brown
   59            bunk	Adrian Bunk
   60           byang	Boyuan Yang
   61            bzed	Bernd Zeimetz
   62        calculus	Jerome Georges Benoit
   63        capriott	Andrea Capriotti
   64          carnil	Salvatore Bonaccorso
   65             cas	Craig Sanders
   66        cascardo	Thadeu Cascardo
   67          cbiedl	Christoph Biedl
   68        cespedes	Juan Cespedes
   69       chronitis	Gordon Ball
   70        cjwatson	Colin Watson
   71             ckk	Christian Kastner
   72           cklin	Chuan-kai Lin
   73           clint	Clint Adams
   74        codehelp	Neil Williams
   75          colint	Colin Tuckley
-=-=-=-=-=-=-=-=-=-=-=-=-=-=-=-=-=-=-=-=-=-=-=-=-=-=-=-=-=-=-=-=-=-=-=
Count     Debian UID 	   Name 
-=-=-=-=-=-=-=-=-=-=-=-=-=-=-=-=-=-=-=-=-=-=-=-=-=-=-=-=-=-=-=-=-=-=-=
   76            cord	Cord Beermann
   77          crusoe	Michael Robin Crusoe
   78          csmall	Craig Small
   79             cts	Christian T. Steigies
   80           curan	Kai Wasserbäch
   81           cwryu	Changwoo Ryu
   82          czchen	ChangZhuo Chen
   83             dai	Daisuke Higuchi
   84          daniel	Daniel Baumann
   85           dannf	Dann Frazier
   86           dapal	David Paleino
   87       directhex	Jo Shields
   88             dkg	Daniel Kahn Gillmor
   89          dkogan	Dima Kogan
   90       dktrkranz	Luca Falavigna
   91          dlange	Daniel Lange
   92           dlehn	David I. Lehn
   93         dmartin	Dale Martin
   94             dmn	Damyan Ivanov
   95             dod	Dominique Dumont
   96         dogsleg	Lev Lamberov
   97             don	Don Armstrong
   98          donald	Donald Norwood
   99         donkult	David Kalnischkies
  100        dsilvers	Daniel Silverstone
-=-=-=-=-=-=-=-=-=-=-=-=-=-=-=-=-=-=-=-=-=-=-=-=-=-=-=-=-=-=-=-=-=-=-=
Count     Debian UID 	   Name 
-=-=-=-=-=-=-=-=-=-=-=-=-=-=-=-=-=-=-=-=-=-=-=-=-=-=-=-=-=-=-=-=-=-=-=
  101          ebourg	Emmanuel Bourg
  102             edd	Dirk Eddelbuettel
  103         edmonds	Robert Edmonds
  104          eevans	Eric Evans
  105        ehashman	Elana Hashman
  106       eighthave	Hans-Christoph Steiner
  107          elbrus	Paul Mathijs Gevers
  108          enrico	Enrico Zini
  109        eppesuig	Giuseppe Sacco
  110        eriberto	Joao Eriberto Mota Filho
  111            eric	Eric Dorland
  112           eriks	Erik Schanze
  113           eriol	Daniele Tricoli
  114             evo	Davide Puricelli
  115           fabbe	Fabian Fagerholm
  116          fabian	Fabian Greffrath
  117             faw	Felipe Augusto van de Wiel
  118          fgeyer	Felix Geyer
  119         filippo	Filippo Giunchedi
  120         florian	Florian Ernst
  121         fpeters	Frederic Peters
  122        francois	Francois Marier
  123         frankie	Francesco Lovergine
  124            fsfs	Florian Schlichting
  125           fuddl	Bruno Kleinert
-=-=-=-=-=-=-=-=-=-=-=-=-=-=-=-=-=-=-=-=-=-=-=-=-=-=-=-=-=-=-=-=-=-=-=
Count     Debian UID 	   Name 
-=-=-=-=-=-=-=-=-=-=-=-=-=-=-=-=-=-=-=-=-=-=-=-=-=-=-=-=-=-=-=-=-=-=-=
  126              fw	Florian Weimer
  127         gaudenz	Gaudenz Steinlin
  128           georg	Georg Faerber
  129        georgesk	Georges Khaznadar
  130          ginggs	Graham Inggs
  131             gio	Giovanni Mascellani
  132         giovani	Giovani Augusto Ferreira
  133           gladk	Anton Gladky
  134        glaubitz	John Paul Adrian Glaubitz
  135          glondu	Stéphane Glondu
  136          gniibe	NIIBE Yutaka
  137              gq	Alexander GQ Gerasiov
  138          gregoa	Gregor Herrmann
  139            gspr	Gard Spreemann
  140         guilhem	Guilhem Moulin
  141         guillem	Guillem Jover
  142          gusnan	Andreas Rönnquist
  143            guus	Guus Sliepen
  144           gwolf	Gunnar Wolf
  145        hartmans	Sam Hartman
  146           hefee	Sandro Knauß
  147         helmutg	Helmut Grohne
  148         hertzog	Raphaël Hertzog
  149      hlieberman	Harlan Lieberman-Berg
  150             hmh	Henrique de Moraes Holschuh
-=-=-=-=-=-=-=-=-=-=-=-=-=-=-=-=-=-=-=-=-=-=-=-=-=-=-=-=-=-=-=-=-=-=-=
Count     Debian UID 	   Name 
-=-=-=-=-=-=-=-=-=-=-=-=-=-=-=-=-=-=-=-=-=-=-=-=-=-=-=-=-=-=-=-=-=-=-=
  151         hoexter	Sven Hoexter
  152          holger	Holger Levsen
  153          hsteoh	Hwei Sheng Teoh
  154             hug	Philipp Hug
  155      hvhaugwitz	Hannes von Haugwitz
  156            ianw	Ian Wienand
  157             ijc	Ian James Campbell
  158        iliastsi	Ilias Tsitsimpis
  159        indiebio	Bernelle Verster
  160       intrigeri	Intrigeri
  161        ishikawa	Ishikawa Mutsumi
  162          iustin	Iustin Pop
  163           ivodd	Ivo De Decker
  164             iwj	Ian Jackson
  165             jak	Julian Andres Klode
  166         jaldhar	Jaldhar H. Vyas
  167           jandd	Jan Dittberner
  168          jaqque	John Robinson
  169          jathan	Jonathan Bustillos
  170             jcc	Jonathan Cristopher Carter
  171            jcfp	Jeroen Ploemen
  172        jcristau	Julien Cristau
  173             jdg	Julian Gilbey
  174          jelmer	Jelmer Vernooij
  175             jjr	Jeffrey Ratcliffe
-=-=-=-=-=-=-=-=-=-=-=-=-=-=-=-=-=-=-=-=-=-=-=-=-=-=-=-=-=-=-=-=-=-=-=
Count     Debian UID 	   Name 
-=-=-=-=-=-=-=-=-=-=-=-=-=-=-=-=-=-=-=-=-=-=-=-=-=-=-=-=-=-=-=-=-=-=-=
  176          jlines	John Lines
  177       jmaslibre	Josué Abarca
  178             jmm	Moritz Muehlenhoff
  179            jmtd	Jonathan Dowland
  180             jmw	Jonathan Wiltshire
  181           joerg	Joerg Jaspert
  182           josue	Josué Ortega
  183         joussen	Mario Joussen
  184       jpmengual	Jean-Philippe MENGUAL
  185          jpuydt	Julien Puydt
  186        jredrejo	José L. Redrejo Rodríguez
  187          jrtc27	Jessica Clarke
  188              js	Jonas Smedegaard
  189        jspricke	Jochen Sprickerhof
  190       jvalleroy	James Valleroy
  191            kaol	Kari Pahula
  192           karen	Karen M Sandler
  193          kartik	Kartik Mistry
  194            kees	Kees Cook
  195          keithp	Keith Packard
  196          kenhys	HAYASHI Kentaro
  197        kilobyte	Adam Borowski
  198       kitterman	Scott Kitterman
  199            knok	Takatsugu Nokubi
  200           kobla	Ondřej Kobližek
-=-=-=-=-=-=-=-=-=-=-=-=-=-=-=-=-=-=-=-=-=-=-=-=-=-=-=-=-=-=-=-=-=-=-=
Count     Debian UID 	   Name 
-=-=-=-=-=-=-=-=-=-=-=-=-=-=-=-=-=-=-=-=-=-=-=-=-=-=-=-=-=-=-=-=-=-=-=
  201          kolter	Emmanuel Bouthenot
  202           krait	Christopher Knadle
  203           krala	Antonin Kral
  204         kreckel	Richard Kreckel
  205      kritzefitz	Sven Bartscher
  206            kula	Marcin Kulisz
  207           lamby	Chris Lamb
  208           laney	Iain Lane
  209           lange	Thomas Lange
  210         larjona	Laura Arjona Reina
  211        lavamind	Jerome Charaoui
  212        lawrencc	Christopher Lawrence
  213      lazyfrosch	Markus Frosch
  214     leatherface	Julien Patriarca
  215         lechner	Felix Lechner
  216          leepen	Mark Hindley
  217         legoktm	Kunal Mehta
  218         lenharo	Daniel Lenharo de Souza
  219             leo	Carsten Leonhardt
  220        lfilipoz	Luca Filipozzi
  221        lightsey	John Lightsey
  222          lkajan	Laszlo Kajan
  223         lmamane	Lionel Elie Mamane
  224          lohner	Nils Boeffel
  225         lopippo	Filippo Rusconi
-=-=-=-=-=-=-=-=-=-=-=-=-=-=-=-=-=-=-=-=-=-=-=-=-=-=-=-=-=-=-=-=-=-=-=
Count     Debian UID 	   Name 
-=-=-=-=-=-=-=-=-=-=-=-=-=-=-=-=-=-=-=-=-=-=-=-=-=-=-=-=-=-=-=-=-=-=-=
  226           lucab	Luca Bruno
  227           lucas	Lucas Nussbaum
  228           lumin	Mo Zhou
  229         lyknode	Baptiste Beauplat
  230         madduck	Martin F. Krafft
  231            mafm	Manuel A. Fernandez Montecelo
  232             mak	Matthias Klumpp
  233            maks	Maximilian Attems
  234            manu	Emmanuel Kasper Kasprzyk
  235           mattb	Matthew Brown
  236         matthew	Matthew Vernon
  237     matthieucan	Matthieu Caneill
  238          mattia	Mattia Rizzolo
  239            maxx	Martin Wuertele
  240          mbanck	Michael Banck
  241         mbehrle	Mathias Behrle
  242           mbuck	Martin Buck
  243              md	Marco d'Itri
  244       mechtilde	Mechtilde Stehmann
  245           mehdi	Mehdi Dogguy
  246            mejo	Jonas Meurer
  247          merker	Karsten Merker
  248          merkys	Andrius Merkys
  249          meskes	Michael Meskes
  250           metal	Marcelo Jorge Vieira
-=-=-=-=-=-=-=-=-=-=-=-=-=-=-=-=-=-=-=-=-=-=-=-=-=-=-=-=-=-=-=-=-=-=-=
Count     Debian UID 	   Name 
-=-=-=-=-=-=-=-=-=-=-=-=-=-=-=-=-=-=-=-=-=-=-=-=-=-=-=-=-=-=-=-=-=-=-=
  251             mez	Martin Meredith
  252             mfv	Matteo F. Vescovi
  253           micha	Micha Lenk
  254          midget	Dario Minnucci
  255             mih	Michael Hanke
  256            mika	Michael Prokop
  257           milan	Milan Kupcevic
  258        mjeanson	Michael Jeanson
  259           mjg59	Matthew Garrett
  260             mjr	Mark J Ray
  261         mollydb	Molly de Blanc
  262           mones	Ricardo Mones Lastra
  263           moray	Moray Allan
  264           morph	Sandro Tosi
  265           mpitt	Martin Pitt
  266             mrd	Matthew Danish
  267          mstone	Michael Stone
  268              mt	Michael Tautschnig
  269     mtecknology	Michael Lustfield
  270           murat	Murat Demirten
  271            mwei	Ming-ting Yao Wei
  272            myon	Christoph Berg
  273    natureshadow	Dominik George
  274          nbreen	Nicholas Breen
  275           neilm	Neil McGovern
-=-=-=-=-=-=-=-=-=-=-=-=-=-=-=-=-=-=-=-=-=-=-=-=-=-=-=-=-=-=-=-=-=-=-=
Count     Debian UID 	   Name 
-=-=-=-=-=-=-=-=-=-=-=-=-=-=-=-=-=-=-=-=-=-=-=-=-=-=-=-=-=-=-=-=-=-=-=
  276           nickm	Nick Morrott
  277           nicoo	Nicoo
  278           nijel	Michal Cihar
  279          nilesh	Nilesh Patra
  280           noahm	Noah Meyerhans
  281          nodens	Clément Hermann
  282            noel	Noèl Köthe
  283         nomeata	Joachim Breitner
  284         noodles	Jonathan McDowell
  285        nthykier	Niels Thykier
  286           ntyni	Niko Tyni
  287            odyx	Didier Raboud
  288           ohura	Makoto OHURA
  289           olasd	Nicolas Dandrimont
  290         olebole	Ole Streicher
  291            olek	Olek Wojnar
  292          ondrej	Ondrej Sury
  293         onlyjob	Dmitry Smirnov
  294           onovy	Ondřej Nový
  295             orv	Benda Xu
  296           osamu	Osamu Aoki
  297            otto	Otto Kekäläinen
  298            pabs	Paul Wise
  299    paddatrapper	Kyle Robbertze
  300        paravoid	Faidon Liambotis
-=-=-=-=-=-=-=-=-=-=-=-=-=-=-=-=-=-=-=-=-=-=-=-=-=-=-=-=-=-=-=-=-=-=-=
Count     Debian UID 	   Name 
-=-=-=-=-=-=-=-=-=-=-=-=-=-=-=-=-=-=-=-=-=-=-=-=-=-=-=-=-=-=-=-=-=-=-=
  301          paride	Paride Legovini
  302         paulliu	Ying-Chun Liu
  303         paultag	Paul Richards Tagliamonte
  304             pdm	Milan Zamazal
  305             peb	Pierre-Elliott Bécue
  306            pere	Petter Reinholdtsen
  307             pgt	Pierre Gruet
  308           philh	Philip Hands
  309            phls	Paulo Henrique de Lima Santana
  310           picca	Frédéric-Emmanuel Picca
  311             pik	Paul Cannon
  312            pini	Gilles Filippini
  313           piotr	Piotr Ożarowski
  314             pjb	Phil Brooke
  315           pkern	Philipp Kern
  316          plessy	Charles Plessy
  317       pmatthaei	Patrick Matthäi
  318          pmhahn	Philipp Matthias Hahn
  319           pollo	Louis-Philippe Véronneau
  320          pollux	Pierre Chifflier
  321        porridge	Marcin Owsiany
  322         praveen	Praveen Arimbrathodiyil
  323        preining	Norbert Preining
  324        pronovic	Kenneth J. Pronovici
  325        pvaneynd	Peter Van Eynde
-=-=-=-=-=-=-=-=-=-=-=-=-=-=-=-=-=-=-=-=-=-=-=-=-=-=-=-=-=-=-=-=-=-=-=
Count     Debian UID 	   Name 
-=-=-=-=-=-=-=-=-=-=-=-=-=-=-=-=-=-=-=-=-=-=-=-=-=-=-=-=-=-=-=-=-=-=-=
  326             qjb	Jay Berkenbilt
  327             rak	Ryan Kavanagh
  328             ras	Russell Stuart
  329         rbalint	Balint Reczey
  330          rbasak	Robie Basak
  331             reg	Gregory Colpart
  332         reichel	Joachim Reichel
  333      rfrancoise	Romain Francoise
  334          rhonda	Rhonda D'Vine
  335          richih	Richard Michael Hartmann
  336         rlaager	Richard Laager
  337            roam	Peter Pentchev
  338          roland	Roland Rosenfeld
  339            rosh	Roger Shimizu
  340        rousseau	Ludovic Rousseau
  341           rover	Roberto Lumbreras
  342             rra	Russ Allbery
  343     rvandegrift	Ross Vandegrift
  344       samueloph	Samuel Henrique
  345        santiago	Santiago Ruano Rincón
  346         sanvila	Santiago Vila
  347         sathieu	Mathieu Parent
  348           satta	Sascha Steinbiss
  349          sbadia	Sebastien Badia
  350        schultmc	Michael C. Schultheiss
-=-=-=-=-=-=-=-=-=-=-=-=-=-=-=-=-=-=-=-=-=-=-=-=-=-=-=-=-=-=-=-=-=-=-=
Count     Debian UID 	   Name 
-=-=-=-=-=-=-=-=-=-=-=-=-=-=-=-=-=-=-=-=-=-=-=-=-=-=-=-=-=-=-=-=-=-=-=
  351             seb	Sebastien Delafond
  352       sebastien	Sébastien Villemot
  353        sergiodj	Sergio Durigan Junior
  354         serpent	Tomasz Rybak
  355           sesse	Steinar H. Gunderson
  356             sez	Serafeim Zanikolas
  357              sf	Stefan Fritsch
  358        siretart	Reinhard Tartler
  359          sjoerd	Sjoerd Simons
  360             sjr	Simon Richter
  361           skitt	Stephen Kitt
  362           slomo	Sebastian Dröge
  363            smcv	Simon McVittie
  364             smr	Steven Michael Robbins
  365           smurf	Matthias Urlichs
  366       spwhitton	Sean Whitton
  367       sramacher	Sebastian Ramacher
  368            srud	Sruthi Chandran
  369          ssgelm	Stephen Gelman
  370             ssm	Stig Sandbeck Mathisen
  371      stapelberg	Michael Stapelberg
  372        stappers	Geert Stappers
  373          steele	David Steele
  374        stefanor	Stefano Rivera
  375            sten	Nicholas D Steeves
-=-=-=-=-=-=-=-=-=-=-=-=-=-=-=-=-=-=-=-=-=-=-=-=-=-=-=-=-=-=-=-=-=-=-=
Count     Debian UID 	   Name 
-=-=-=-=-=-=-=-=-=-=-=-=-=-=-=-=-=-=-=-=-=-=-=-=-=-=-=-=-=-=-=-=-=-=-=
  376  stephanlachnit	Stephan Lachnit
  377           steve	Steve Kostecke
  378         stevenc	Steven Chamberlain
  379       sthibault	Samuel Thibault
  380             sto	Sergio Talens-Oliag
  381          stuart	Stuart Prescott
  382           sudip	Sudip Mukherjee
  383            sune	Sune Vuorela
  384       sunweaver	Mike Gabriel
  385           sur5r	Jakob Haufe
  386       sylvestre	Sylvestre Ledru
  387            tach	Taku Yasui
  388          taffit	David Prévot
  389          takaki	Takaki Taniguchi
  390           taowa	Taowa
  391          tassia	Tássia Camões Araújo
  392             tbm	Martin Michlmayr
  393         tehnick	Boris Pek
  394        terceiro	Antonio Terceiro
  395          tfheen	Tollef Fog Heen
  396              tg	Thorsten Glaser
  397         thansen	Tobias Hansen
  398             thb	Thaddeus H. Black
  399           thijs	Thijs Kinkhorst
  400             thk	Thomas Koch
-=-=-=-=-=-=-=-=-=-=-=-=-=-=-=-=-=-=-=-=-=-=-=-=-=-=-=-=-=-=-=-=-=-=-=
Count     Debian UID 	   Name 
-=-=-=-=-=-=-=-=-=-=-=-=-=-=-=-=-=-=-=-=-=-=-=-=-=-=-=-=-=-=-=-=-=-=-=
  401           tiago	Tiago Bortoletto Vaz
  402          tianon	Tianon Gravi
  403          tijuca	Carsten Schoenert
  404           tille	Andreas Tille
  405            timo	Timo Jyrinki
  406            tina	Martina Ferrari
  407            tiwe	Timo Weingärtner
  408        tjhukkan	Teemu Hukkanen
  409        tmancill	Tony Mancill
  410            tobi	Tobias Frost
  411           toddy	Tobias Quathamer
  412            toni	Toni Mueller
  413             tpo	Tomas Pospisek
  414         treinen	Ralf Treinen
  415           troyh	Troy Heber
  416        tvincent	Thomas Vincent
  417          tweber	Thomas Weber
  418           tytso	Theodore Y. Ts'o
  419         tzafrir	Tzafrir Cohen
  420            ucko	Aaron M. Ucko
  421          uhoreg	Hubert Chathi
  422        ukleinek	Uwe Kleine-König
  423          ulrike	Ulrike Uhlig
  424       ultrotter	Guido Trotter
  425        umlaeute	IOhannes m zmölnig
-=-=-=-=-=-=-=-=-=-=-=-=-=-=-=-=-=-=-=-=-=-=-=-=-=-=-=-=-=-=-=-=-=-=-=
Count     Debian UID 	   Name 
-=-=-=-=-=-=-=-=-=-=-=-=-=-=-=-=-=-=-=-=-=-=-=-=-=-=-=-=-=-=-=-=-=-=-=
  426         unit193	Unit 193  
  427           urbec	Judit Foglszinger
  428         utkarsh	Utkarsh Gupta
  429         vagrant	Vagrant Cascadian
  430        valhalla	Elena Grandi
  431         vasudev	Vasudev Sathish Kamath
  432           vicho	Javier Merino Cacho
  433           viiru	Arto Jantunen
  434            vivi	Vincent Prat
  435         vlegout	Vincent Legout
  436          vorlon	Steve Langasek
  437          vvidic	Valentin Vidic
  438          wagner	Hanno Wagner
  439           waldi	Bastian Blank
  440        weinholt	Göran Weinholt
  441           wferi	Ferenc Wágner
  442          wijnen	Bas Wijnen
  443          wookey	Wookey
  444          wouter	Wouter Verhelst
  445            wrar	Andrey Rahmatullin
  446             xam	Max Vozeler
  447          xluthi	Xavier Lüthi
  448             yoh	Yaroslav Halchenko
  449            zack	Stefano Zacchiroli
  450            zeha	Christian Hofstaedtler
-=-=-=-=-=-=-=-=-=-=-=-=-=-=-=-=-=-=-=-=-=-=-=-=-=-=-=-=-=-=-=-=-=-=-=
Count     Debian UID 	   Name 
-=-=-=-=-=-=-=-=-=-=-=-=-=-=-=-=-=-=-=-=-=-=-=-=-=-=-=-=-=-=-=-=-=-=-=
  451            zhsj	Shengjing Zhu
  452            zigo	Thomas Goirand
  453          zlatan	Zlatan Todoric
  454           zobel	Martin Zobel-Helas
  455       zugschlus	Marc Haber
