<define-tag pagetitle>DLA-2829-1 libvpx</define-tag>
<define-tag report_date>2021-11-27</define-tag>
<define-tag secrefs>CVE-2020-0034</define-tag>
<define-tag packages>libvpx</define-tag>
<define-tag isvulnerable>yes</define-tag>
<define-tag fixed>yes</define-tag>
<define-tag fixed-section>no</define-tag>

#use wml::debian::security

