<define-tag pagetitle>DLA-2682-1 mrxvt</define-tag>
<define-tag report_date>2021-06-09</define-tag>
<define-tag secrefs>CVE-2021-33477</define-tag>
<define-tag packages>mrxvt</define-tag>
<define-tag isvulnerable>yes</define-tag>
<define-tag fixed>yes</define-tag>
<define-tag fixed-section>no</define-tag>

#use wml::debian::security

