<define-tag pagetitle>DLA-2858-1 libzip</define-tag>
<define-tag report_date>2021-12-28</define-tag>
<define-tag secrefs>CVE-2017-14107</define-tag>
<define-tag packages>libzip</define-tag>
<define-tag isvulnerable>yes</define-tag>
<define-tag fixed>yes</define-tag>
<define-tag fixed-section>no</define-tag>

#use wml::debian::security

