<define-tag pagetitle>DSA-5322-1 firefox-esr</define-tag>
<define-tag report_date>2023-1-18</define-tag>
<define-tag secrefs>CVE-2022-46871 CVE-2022-46877 CVE-2023-23598 CVE-2023-23601 CVE-2023-23602 CVE-2023-23603 CVE-2023-23605</define-tag>
<define-tag packages>firefox-esr</define-tag>
<define-tag isvulnerable>yes</define-tag>
<define-tag fixed>yes</define-tag>
<define-tag fixed-section>no</define-tag>

#use wml::debian::security



</dl>
