<define-tag pagetitle>DSA-5418-1 chromium</define-tag>
<define-tag report_date>2023-6-03</define-tag>
<define-tag secrefs>CVE-2023-2929 CVE-2023-2930 CVE-2023-2931 CVE-2023-2932 CVE-2023-2933 CVE-2023-2934 CVE-2023-2935 CVE-2023-2936 CVE-2023-2937 CVE-2023-2938 CVE-2023-2939 CVE-2023-2940 CVE-2023-2941</define-tag>
<define-tag packages>chromium</define-tag>
<define-tag isvulnerable>yes</define-tag>
<define-tag fixed>yes</define-tag>
<define-tag fixed-section>no</define-tag>

#use wml::debian::security



</dl>
