<define-tag pagetitle>DSA-5421-1 firefox-esr</define-tag>
<define-tag report_date>2023-6-07</define-tag>
<define-tag secrefs>CVE-2023-34414 CVE-2023-34416</define-tag>
<define-tag packages>firefox-esr</define-tag>
<define-tag isvulnerable>yes</define-tag>
<define-tag fixed>yes</define-tag>
<define-tag fixed-section>no</define-tag>

#use wml::debian::security



</dl>
