<define-tag pagetitle>DSA-5354-1 snort</define-tag>
<define-tag report_date>2023-2-18</define-tag>
<define-tag secrefs>CVE-2020-3299 CVE-2020-3315 CVE-2021-1223 CVE-2021-1224 CVE-2021-1236 CVE-2021-1494 CVE-2021-1495 CVE-2021-34749 CVE-2021-40114 Bug#1021276</define-tag>
<define-tag packages>snort</define-tag>
<define-tag isvulnerable>yes</define-tag>
<define-tag fixed>yes</define-tag>
<define-tag fixed-section>no</define-tag>

#use wml::debian::security



</dl>
