<define-tag pagetitle>DSA-5394-1 ffmpeg</define-tag>
<define-tag report_date>2023-4-30</define-tag>
<define-tag secrefs>CVE-2022-3109</define-tag>
<define-tag packages>ffmpeg</define-tag>
<define-tag isvulnerable>yes</define-tag>
<define-tag fixed>yes</define-tag>
<define-tag fixed-section>no</define-tag>

#use wml::debian::security



</dl>
