<define-tag pagetitle>DLA-0014-1 phpmyadmin</define-tag>
<define-tag report_date>2014-7-9</define-tag>
<define-tag secrefs>CVE-2013-3239 CVE-2013-4995 CVE-2013-4996 CVE-2013-5003</define-tag>
<define-tag packages>phpmyadmin</define-tag>
<define-tag isvulnerable>yes</define-tag>
<define-tag fixed>yes</define-tag>
<define-tag fixed-section>no</define-tag>

#use wml::debian::security

