<define-tag pagetitle>DLA-1030-1 vim</define-tag>
<define-tag report_date>2017-7-18</define-tag>
<define-tag secrefs>CVE-2017-11109 Bug##867720</define-tag>
<define-tag packages>vim</define-tag>
<define-tag isvulnerable>yes</define-tag>
<define-tag fixed>yes</define-tag>
<define-tag fixed-section>no</define-tag>

#use wml::debian::security

