<define-tag pagetitle>DLA-993-2 linux</define-tag>
<define-tag report_date>2017-6-27</define-tag>
<define-tag secrefs>Bug#865303</define-tag>
<define-tag packages>linux</define-tag>
<define-tag isvulnerable>yes</define-tag>
<define-tag fixed>yes</define-tag>
<define-tag fixed-section>no</define-tag>

#use wml::debian::security

