<define-tag pagetitle>DLA-811-1 libplist</define-tag>
<define-tag report_date>2017-1-31</define-tag>
<define-tag secrefs>CVE-2017-5209 CVE-2017-5545 Bug#851196 Bug#852385</define-tag>
<define-tag packages>libplist</define-tag>
<define-tag isvulnerable>yes</define-tag>
<define-tag fixed>yes</define-tag>
<define-tag fixed-section>no</define-tag>

#use wml::debian::security

