<define-tag pagetitle>DLA-868-1 imagemagick</define-tag>
<define-tag report_date>2017-3-24</define-tag>
<define-tag secrefs>CVE-2016-10062 CVE-2017-6498 CVE-2017-6500 Bug#849439 Bug#856878 Bug#856879</define-tag>
<define-tag packages>imagemagick</define-tag>
<define-tag isvulnerable>yes</define-tag>
<define-tag fixed>yes</define-tag>
<define-tag fixed-section>no</define-tag>

#use wml::debian::security

