<define-tag pagetitle>DLA-930-1 libxstream-java</define-tag>
<define-tag report_date>2017-5-1</define-tag>
<define-tag secrefs>CVE-2017-7957 Bug##861521</define-tag>
<define-tag packages>libxstream-java</define-tag>
<define-tag isvulnerable>yes</define-tag>
<define-tag fixed>yes</define-tag>
<define-tag fixed-section>no</define-tag>

#use wml::debian::security

