<define-tag pagetitle>DLA-1122-1 asterisk</define-tag>
<define-tag report_date>2017-10-5</define-tag>
<define-tag secrefs>CVE-2017-14100 Bug#873908</define-tag>
<define-tag packages>asterisk</define-tag>
<define-tag isvulnerable>yes</define-tag>
<define-tag fixed>yes</define-tag>
<define-tag fixed-section>no</define-tag>

#use wml::debian::security

