<define-tag pagetitle>DLA-918-1 freetype</define-tag>
<define-tag report_date>2017-4-26</define-tag>
<define-tag secrefs>CVE-2017-8105 Bug#861220 Bug#860303</define-tag>
<define-tag packages>freetype</define-tag>
<define-tag isvulnerable>yes</define-tag>
<define-tag fixed>yes</define-tag>
<define-tag fixed-section>no</define-tag>

#use wml::debian::security

