<define-tag pagetitle>DLA-813-1 wordpress</define-tag>
<define-tag report_date>2017-2-1</define-tag>
<define-tag secrefs>CVE-2017-5488 CVE-2017-5489 CVE-2017-5490 CVE-2017-5491 CVE-2017-5492 CVE-2017-5493 CVE-2017-5610 CVE-2017-5611 CVE-2017-5612 Bug#851310 Bug#852767</define-tag>
<define-tag packages>wordpress</define-tag>
<define-tag isvulnerable>yes</define-tag>
<define-tag fixed>yes</define-tag>
<define-tag fixed-section>no</define-tag>

#use wml::debian::security

