<define-tag pagetitle>DLA-815-1 ntfs-3g</define-tag>
<define-tag report_date>2017-2-2</define-tag>
<define-tag secrefs>CVE-2017-0358</define-tag>
<define-tag packages>ntfs-3g</define-tag>
<define-tag isvulnerable>yes</define-tag>
<define-tag fixed>yes</define-tag>
<define-tag fixed-section>no</define-tag>

#use wml::debian::security

