<define-tag pagetitle>DLA-1073-1 openjdk-7</define-tag>
<define-tag report_date>2017-8-28</define-tag>
<define-tag secrefs>CVE-2017-10053 CVE-2017-10067 CVE-2017-10074 CVE-2017-10081 CVE-2017-10087 CVE-2017-10089 CVE-2017-10090 CVE-2017-10096 CVE-2017-10101 CVE-2017-10102 CVE-2017-10107 CVE-2017-10108 CVE-2017-10109 CVE-2017-10110 CVE-2017-10115 CVE-2017-10116 CVE-2017-10118 CVE-2017-10135 CVE-2017-10176 CVE-2017-10193 CVE-2017-10198 CVE-2017-10243</define-tag>
<define-tag packages>openjdk-7</define-tag>
<define-tag isvulnerable>yes</define-tag>
<define-tag fixed>yes</define-tag>
<define-tag fixed-section>no</define-tag>

#use wml::debian::security

