<define-tag pagetitle>DLA-1182-1 ldns</define-tag>
<define-tag report_date>2017-11-21</define-tag>
<define-tag secrefs>CVE-2017-1000231 Bug#882015</define-tag>
<define-tag packages>ldns</define-tag>
<define-tag isvulnerable>yes</define-tag>
<define-tag fixed>yes</define-tag>
<define-tag fixed-section>no</define-tag>

#use wml::debian::security

