<define-tag pagetitle>DLA-3274-1 webkit2gtk</define-tag>
<define-tag report_date>2023-01-19</define-tag>
<define-tag secrefs>CVE-2022-42852 CVE-2022-42856 CVE-2022-42867 CVE-2022-46692 CVE-2022-46698 CVE-2022-46699 CVE-2022-46700</define-tag>
<define-tag packages>webkit2gtk</define-tag>
<define-tag isvulnerable>yes</define-tag>
<define-tag fixed>yes</define-tag>
<define-tag fixed-section>no</define-tag>

#use wml::debian::security

