<define-tag pagetitle>DLA-3290-1 libzen</define-tag>
<define-tag report_date>2023-1-29</define-tag>
<define-tag secrefs>CVE-2020-36646</define-tag>
<define-tag packages>libzen</define-tag>
<define-tag isvulnerable>yes</define-tag>
<define-tag fixed>yes</define-tag>
<define-tag fixed-section>no</define-tag>

#use wml::debian::security

