<define-tag pagetitle>DLA-3398-1 curl</define-tag>
<define-tag report_date>2023-4-21</define-tag>
<define-tag secrefs>CVE-2023-27533 CVE-2023-27535 CVE-2023-27536 CVE-2023-27538</define-tag>
<define-tag packages>curl</define-tag>
<define-tag isvulnerable>yes</define-tag>
<define-tag fixed>yes</define-tag>
<define-tag fixed-section>no</define-tag>

#use wml::debian::security

