<define-tag pagetitle>DLA-3432-1 python2.7</define-tag>
<define-tag report_date>2023-05-24</define-tag>
<define-tag secrefs>CVE-2015-20107 CVE-2019-20907 CVE-2020-8492 CVE-2020-26116 CVE-2021-3177 CVE-2021-3733 CVE-2021-3737 CVE-2021-4189 CVE-2022-45061 Bug#970099</define-tag>
<define-tag packages>python2.7</define-tag>
<define-tag isvulnerable>yes</define-tag>
<define-tag fixed>yes</define-tag>
<define-tag fixed-section>no</define-tag>

#use wml::debian::security

