<define-tag pagetitle>DLA-3285-1 libapache-session-browseable-perl</define-tag>
<define-tag report_date>2023-01-28</define-tag>
<define-tag secrefs>CVE-2020-36659</define-tag>
<define-tag packages>libapache-session-browseable-perl</define-tag>
<define-tag isvulnerable>yes</define-tag>
<define-tag fixed>yes</define-tag>
<define-tag fixed-section>no</define-tag>

#use wml::debian::security

