<define-tag pagetitle>DLA-3371-1 unbound</define-tag>
<define-tag report_date>2023-3-29</define-tag>
<define-tag secrefs>CVE-2020-28935 CVE-2022-3204 CVE-2022-30698 CVE-2022-30699 Bug#1016493 Bug#977165</define-tag>
<define-tag packages>unbound</define-tag>
<define-tag isvulnerable>yes</define-tag>
<define-tag fixed>yes</define-tag>
<define-tag fixed-section>no</define-tag>

#use wml::debian::security

