<define-tag pagetitle>DLA-2314-1 clamav</define-tag>
<define-tag report_date>2020-08-06</define-tag>
<define-tag secrefs>CVE-2020-3327 CVE-2020-3350 CVE-2020-3481</define-tag>
<define-tag packages>clamav</define-tag>
<define-tag isvulnerable>yes</define-tag>
<define-tag fixed>yes</define-tag>
<define-tag fixed-section>no</define-tag>

#use wml::debian::security

