<define-tag pagetitle>DLA-2511-1 highlight.js</define-tag>
<define-tag report_date>2020-12-30</define-tag>
<define-tag secrefs>CVE-2020-26237</define-tag>
<define-tag packages>highlight.js</define-tag>
<define-tag isvulnerable>yes</define-tag>
<define-tag fixed>yes</define-tag>
<define-tag fixed-section>no</define-tag>

#use wml::debian::security

