<define-tag pagetitle>DLA-2367-1 lemonldap-ng</define-tag>
<define-tag report_date>2020-9-7</define-tag>
<define-tag secrefs>CVE-2020-24660</define-tag>
<define-tag packages>lemonldap-ng</define-tag>
<define-tag isvulnerable>yes</define-tag>
<define-tag fixed>yes</define-tag>
<define-tag fixed-section>no</define-tag>

#use wml::debian::security

