<define-tag pagetitle>DLA-2059-1 git</define-tag>
<define-tag report_date>2020-01-06</define-tag>
<define-tag secrefs>CVE-2019-1348 CVE-2019-1349 CVE-2019-1352 CVE-2019-1353 CVE-2019-1387</define-tag>
<define-tag packages>git</define-tag>
<define-tag isvulnerable>yes</define-tag>
<define-tag fixed>yes</define-tag>
<define-tag fixed-section>no</define-tag>

#use wml::debian::security

