<define-tag pagetitle>DLA-2340-2 sqlite3</define-tag>
<define-tag report_date>2020-12-10</define-tag>
<define-tag secrefs>CVE-2019-20218</define-tag>
<define-tag packages>sqlite3</define-tag>
<define-tag isvulnerable>yes</define-tag>
<define-tag fixed>yes</define-tag>
<define-tag fixed-section>no</define-tag>

#use wml::debian::security

