<define-tag pagetitle>DLA-2321-1 firmware-nonfree</define-tag>
<define-tag report_date>2020-08-11</define-tag>
<define-tag packages>firmware-nonfree</define-tag>
<define-tag isvulnerable>no</define-tag>
<define-tag fixed>no</define-tag>
<define-tag fixed-section>no</define-tag>

#use wml::debian::security

