<define-tag pagetitle>DLA-1249-1 smarty3</define-tag>
<define-tag report_date>2018-1-19</define-tag>
<define-tag secrefs>CVE-2017-1000480 Bug##886460</define-tag>
<define-tag packages>smarty3</define-tag>
<define-tag isvulnerable>yes</define-tag>
<define-tag fixed>yes</define-tag>
<define-tag fixed-section>no</define-tag>

#use wml::debian::security

