<define-tag pagetitle>DSA-4414-1 libapache2-mod-auth-mellon</define-tag>
<define-tag report_date>2019-3-23</define-tag>
<define-tag secrefs>CVE-2019-3877 CVE-2019-3878 Bug#925197</define-tag>
<define-tag packages>libapache2-mod-auth-mellon</define-tag>
<define-tag isvulnerable>yes</define-tag>
<define-tag fixed>yes</define-tag>
<define-tag fixed-section>no</define-tag>

#use wml::debian::security



</dl>
