<define-tag pagetitle>DSA-4477-1 zeromq3</define-tag>
<define-tag report_date>2019-7-08</define-tag>
<define-tag secrefs>CVE-2019-13132</define-tag>
<define-tag packages>zeromq3</define-tag>
<define-tag isvulnerable>yes</define-tag>
<define-tag fixed>yes</define-tag>
<define-tag fixed-section>no</define-tag>

#use wml::debian::security



</dl>
