<define-tag pagetitle>DSA-4585-1 thunderbird</define-tag>
<define-tag report_date>2019-12-15</define-tag>
<define-tag secrefs>CVE-2019-17005 CVE-2019-17008 CVE-2019-17010 CVE-2019-17011 CVE-2019-17012 Bug#946588</define-tag>
<define-tag packages>thunderbird</define-tag>
<define-tag isvulnerable>yes</define-tag>
<define-tag fixed>yes</define-tag>
<define-tag fixed-section>no</define-tag>

#use wml::debian::security



</dl>
