<define-tag pagetitle>DSA-5234-1 fish</define-tag>
<define-tag report_date>2022-9-21</define-tag>
<define-tag secrefs>CVE-2022-20001</define-tag>
<define-tag packages>fish</define-tag>
<define-tag isvulnerable>yes</define-tag>
<define-tag fixed>yes</define-tag>
<define-tag fixed-section>no</define-tag>

#use wml::debian::security



</dl>
