<define-tag pagetitle>DSA-5296-1 xfce4-settings</define-tag>
<define-tag report_date>2022-12-06</define-tag>
<define-tag secrefs>CVE-2022-45062 Bug#1023732</define-tag>
<define-tag packages>xfce4-settings</define-tag>
<define-tag isvulnerable>yes</define-tag>
<define-tag fixed>yes</define-tag>
<define-tag fixed-section>no</define-tag>

#use wml::debian::security



</dl>
