<define-tag pagetitle>DSA-5223-1 chromium</define-tag>
<define-tag report_date>2022-9-01</define-tag>
<define-tag secrefs>CVE-2022-3038 CVE-2022-3039 CVE-2022-3040 CVE-2022-3041 CVE-2022-3042 CVE-2022-3043 CVE-2022-3044 CVE-2022-3045 CVE-2022-3046 CVE-2022-3047 CVE-2022-3048 CVE-2022-3049 CVE-2022-3050 CVE-2022-3051 CVE-2022-3052 CVE-2022-3053 CVE-2022-3054 CVE-2022-3055 CVE-2022-3056 CVE-2022-3057 CVE-2022-3058 CVE-2022-3071 Bug#987292</define-tag>
<define-tag packages>chromium</define-tag>
<define-tag isvulnerable>yes</define-tag>
<define-tag fixed>yes</define-tag>
<define-tag fixed-section>no</define-tag>

#use wml::debian::security



</dl>
