<define-tag pagetitle>DSA-5055-1 util-linux</define-tag>
<define-tag report_date>2022-1-24</define-tag>
<define-tag secrefs>CVE-2021-3995 CVE-2021-3996</define-tag>
<define-tag packages>util-linux</define-tag>
<define-tag isvulnerable>yes</define-tag>
<define-tag fixed>yes</define-tag>
<define-tag fixed-section>no</define-tag>

#use wml::debian::security



</dl>
