<define-tag pagetitle>DSA-5053-1 pillow</define-tag>
<define-tag report_date>2022-1-21</define-tag>
<define-tag secrefs>CVE-2022-22815 CVE-2022-22816 CVE-2022-22817</define-tag>
<define-tag packages>pillow</define-tag>
<define-tag isvulnerable>yes</define-tag>
<define-tag fixed>yes</define-tag>
<define-tag fixed-section>no</define-tag>

#use wml::debian::security



</dl>
