<define-tag pagetitle>DSA-5257-1 linux</define-tag>
<define-tag report_date>2022-10-18</define-tag>
<define-tag secrefs>CVE-2021-4037 CVE-2022-0171 CVE-2022-1184 CVE-2022-2602 CVE-2022-2663 CVE-2022-3061 CVE-2022-3176 CVE-2022-3303 CVE-2022-20421 CVE-2022-39188 CVE-2022-39842 CVE-2022-40307 CVE-2022-41674 CVE-2022-42719 CVE-2022-42720 CVE-2022-42721 CVE-2022-42722</define-tag>
<define-tag packages>linux</define-tag>
<define-tag isvulnerable>yes</define-tag>
<define-tag fixed>yes</define-tag>
<define-tag fixed-section>no</define-tag>

#use wml::debian::security



</dl>
