<define-tag pagetitle>DSA-5098-1 tryton-server</define-tag>
<define-tag report_date>2022-3-10</define-tag>
<define-tag secrefs>CVE-2022-26661 CVE-2022-26662</define-tag>
<define-tag packages>tryton-server</define-tag>
<define-tag isvulnerable>yes</define-tag>
<define-tag fixed>yes</define-tag>
<define-tag fixed-section>no</define-tag>

#use wml::debian::security



</dl>
