<define-tag pagetitle>DLA-1638-1 libjpeg-turbo</define-tag>
<define-tag report_date>2019-1-22</define-tag>
<define-tag secrefs>CVE-2016-3616 CVE-2018-1152 CVE-2018-11212 CVE-2018-11213 CVE-2018-11214 Bug##819969 Bug##902950 Bug##902176</define-tag>
<define-tag packages>libjpeg-turbo</define-tag>
<define-tag isvulnerable>yes</define-tag>
<define-tag fixed>yes</define-tag>
<define-tag fixed-section>no</define-tag>

#use wml::debian::security

