<define-tag pagetitle>DLA-1742-1 wordpress</define-tag>
<define-tag report_date>2019-4-1</define-tag>
<define-tag secrefs>CVE-2019-8942 CVE-2019-9787 Bug#924546</define-tag>
<define-tag packages>wordpress</define-tag>
<define-tag isvulnerable>yes</define-tag>
<define-tag fixed>yes</define-tag>
<define-tag fixed-section>no</define-tag>

#use wml::debian::security

