<define-tag pagetitle>DLA-1772-1 libvirt</define-tag>
<define-tag report_date>2019-05-01</define-tag>
<define-tag secrefs>CVE-2016-10746</define-tag>
<define-tag packages>libvirt</define-tag>
<define-tag isvulnerable>yes</define-tag>
<define-tag fixed>yes</define-tag>
<define-tag fixed-section>no</define-tag>

#use wml::debian::security

