<define-tag pagetitle>DLA-1781-1 qemu</define-tag>
<define-tag report_date>2019-5-9</define-tag>
<define-tag secrefs>CVE-2018-11806 CVE-2018-18849 CVE-2018-20815 CVE-2019-9824 Bug#901017 Bug#912535</define-tag>
<define-tag packages>qemu</define-tag>
<define-tag isvulnerable>yes</define-tag>
<define-tag fixed>yes</define-tag>
<define-tag fixed-section>no</define-tag>

#use wml::debian::security

