<define-tag pagetitle>DLA-512-1 mantis</define-tag>
<define-tag report_date>2016-6-12</define-tag>
<define-tag secrefs>CVE-2016-5364</define-tag>
<define-tag packages>mantis</define-tag>
<define-tag isvulnerable>yes</define-tag>
<define-tag fixed>yes</define-tag>
<define-tag fixed-section>no</define-tag>

#use wml::debian::security

