<define-tag pagetitle>DLA-628-1 php5</define-tag>
<define-tag report_date>2016-9-18</define-tag>
<define-tag secrefs>CVE-2016-4473 CVE-2016-4538 CVE-2016-5114 CVE-2016-5399 CVE-2016-5768 CVE-2016-5769 CVE-2016-5770 CVE-2016-5771 CVE-2016-5772 CVE-2016-5773 CVE-2016-6289 CVE-2016-6290 CVE-2016-6291 CVE-2016-6292 CVE-2016-6294 CVE-2016-6295 CVE-2016-6296 CVE-2016-6297</define-tag>
<define-tag packages>php5</define-tag>
<define-tag isvulnerable>yes</define-tag>
<define-tag fixed>yes</define-tag>
<define-tag fixed-section>no</define-tag>

#use wml::debian::security

