<define-tag pagetitle>DLA-479-1 xen</define-tag>
<define-tag report_date>2016-5-17</define-tag>
<define-tag secrefs>CVE-2015-2752 CVE-2015-2756 CVE-2015-5165 CVE-2015-5307 CVE-2015-7969 CVE-2015-7970 CVE-2015-7971 CVE-2015-7972 CVE-2015-8104 CVE-2015-8339 CVE-2015-8340 CVE-2015-8550 CVE-2015-8554 CVE-2015-8555 CVE-2015-8615 CVE-2016-1570 CVE-2016-1571 CVE-2016-2270 CVE-2016-2271</define-tag>
<define-tag packages>xen</define-tag>
<define-tag isvulnerable>yes</define-tag>
<define-tag fixed>yes</define-tag>
<define-tag fixed-section>no</define-tag>

#use wml::debian::security

